25 39
1 2
1 3
1 4
1 6
2 8
2 9
3 0
4 10
5 6
5 7
5 22
6 5
9 0
10 4
10 13
10 15
10 18
10 22
11 19
11 21
13 12
13 14
14 15
15 14
15 16
16 23
18 16
18 23
18 24
19 21
20 24
21 19
22 5
22 17
22 20
23 11
23 16
23 18
23 21
24 20
